{
	"variants":{
		"type=0":{
			"model":"tardis:block/xion_crystal_1"
		},
		"type=1":{
			"model":"tardis:block/xion_crystal_2"
		},
		"type=2":{
			"model":"tardis:block/xion_crystal_3"
		},
		"type=3":{
			"model":"tardis:block/xion_crystal_4"
		},
		"type=4":{
			"model":"tardis:block/xion_crystal_5"
		},
		"type=5":{
			"model":"tardis:block/xion_crystal_6"
		}
	}
}