{
  "type":"normal",
  "text":"Navigation Computer. The Navigation Computer (Nav-Com) allows your Timeship to control where it's going. Without it, you cannot see or set your destination position and must use the randomiser."
}