{
  "type": "normal",
  "text": "Artron Energy Artron Energy is the energy system used to power your Timeship and other devices. Unit of Measurement: Artron Units (AU). It is currently obtained through your timeship's Refueler control or from Artron batteries which are applied to the console."
}