{
	"credit": "Made with Blockbench",
	"texture_size": [32, 32],
	"textures": {
		"20": "tardis:item/sonics/mk5_activator"
	},
	"elements": [
		{
			"name": "octagon",
			"from": [7.51461, 1.84951, 2.03456],
			"to": [8.51664, 2.27174, 4.36456],
			"rotation": {"angle": 0, "axis": "y", "origin": [8, 9.29798, 6.67734]},
			"faces": {
				"north": {"uv": [2.5, 1, 3, 1.5], "texture": "#20"},
				"east": {"uv": [1, 0.5, 2, 1], "texture": "#20"},
				"south": {"uv": [2.5, 2, 3, 2.5], "texture": "#20"},
				"west": {"uv": [0, 2, 1, 2.5], "texture": "#20"},
				"up": {"uv": [2.5, 3, 2, 2], "texture": "#20"},
				"down": {"uv": [0.5, 2.5, 0, 3.5], "texture": "#20"}
			}
		},
		{
			"name": "octagon",
			"from": [7.32711, 0.94326, 1.53456],
			"to": [8.67289, 2.17799, 4.86456],
			"rotation": {"angle": 0, "axis": "y", "origin": [8, 9.29798, 6.67734]},
			"faces": {
				"north": {"uv": [4.5, 2, 5, 2.5], "texture": "#20"},
				"east": {"uv": [1, 1, 2.5, 1.5], "texture": "#20"},
				"south": {"uv": [4.5, 2.5, 5, 3], "texture": "#20"},
				"west": {"uv": [1, 0, 2.5, 0.5], "texture": "#20"},
				"up": {"uv": [1.5, 3, 1, 1.5], "texture": "#20"},
				"down": {"uv": [2, 1.5, 1.5, 3], "texture": "#20"}
			}
		},
		{
			"name": "octagon",
			"from": [7.20211, 1.06826, 1.53456],
			"to": [8.79789, 1.95924, 3.36456],
			"rotation": {"angle": 0, "axis": "y", "origin": [8, 9.29798, 6.67734]},
			"faces": {
				"north": {"uv": [2, 0.5, 3, 1], "texture": "#20"},
				"east": {"uv": [2, 1.5, 3, 2], "texture": "#20"},
				"south": {"uv": [2.5, 2.5, 3.5, 3], "texture": "#20"},
				"west": {"uv": [2.5, 0, 3.5, 0.5], "texture": "#20"},
				"up": {"uv": [1, 1, 0, 0], "texture": "#20"},
				"down": {"uv": [1, 1, 0, 2], "texture": "#20"}
			}
		},
		{
			"name": "octagon",
			"from": [6.85836, 1.81826, 1.78456],
			"to": [7.36039, 2.02174, 2.55206],
			"rotation": {"angle": 0, "axis": "y", "origin": [8, 9.29798, 6.67734]},
			"faces": {
				"north": {"uv": [4.5, 3, 5, 3.5], "texture": "#20"},
				"east": {"uv": [4.5, 3.5, 5, 4], "texture": "#20"},
				"south": {"uv": [4.5, 4, 5, 4.5], "texture": "#20"},
				"west": {"uv": [1, 5, 1.5, 5.5], "texture": "#20"},
				"up": {"uv": [2, 5.5, 1.5, 5], "texture": "#20"},
				"down": {"uv": [4.5, 5, 4, 5.5], "texture": "#20"}
			}
		},
		{
			"name": "octagon",
			"from": [6.85836, 1.41201, 2.00331],
			"to": [7.36039, 1.61549, 3.02081],
			"rotation": {"angle": 0, "axis": "y", "origin": [8, 9.29798, 6.67734]},
			"faces": {
				"north": {"uv": [5, 5, 5.5, 5.5], "texture": "#20"},
				"east": {"uv": [5, 0, 5.5, 0.5], "texture": "#20"},
				"south": {"uv": [5, 0.5, 5.5, 1], "texture": "#20"},
				"west": {"uv": [5, 1, 5.5, 1.5], "texture": "#20"},
				"up": {"uv": [5.5, 2, 5, 1.5], "texture": "#20"},
				"down": {"uv": [5.5, 2, 5, 2.5], "texture": "#20"}
			}
		},
		{
			"name": "octagon",
			"from": [6.65897, 1.63076, 1.4381],
			"to": [7.16099, 1.83424, 2.4556],
			"rotation": {"angle": 22.5, "axis": "y", "origin": [6.76562, 1.51375, 1.88706]},
			"faces": {
				"north": {"uv": [5, 2.5, 5.5, 3], "texture": "#20"},
				"east": {"uv": [5, 3, 5.5, 3.5], "texture": "#20"},
				"south": {"uv": [5, 3.5, 5.5, 4], "texture": "#20"},
				"west": {"uv": [5, 4, 5.5, 4.5], "texture": "#20"},
				"up": {"uv": [5.5, 5, 5, 4.5], "texture": "#20"},
				"down": {"uv": [0.5, 5.5, 0, 6], "texture": "#20"}
			}
		},
		{
			"name": "octagon",
			"from": [6.65897, 1.19326, 1.4381],
			"to": [7.16099, 1.39674, 2.4556],
			"rotation": {"angle": 22.5, "axis": "y", "origin": [6.76562, 1.51375, 1.88706]},
			"faces": {
				"north": {"uv": [0.5, 5.5, 1, 6], "texture": "#20"},
				"east": {"uv": [1, 5.5, 1.5, 6], "texture": "#20"},
				"south": {"uv": [1.5, 5.5, 2, 6], "texture": "#20"},
				"west": {"uv": [2, 5.5, 2.5, 6], "texture": "#20"},
				"up": {"uv": [3, 6, 2.5, 5.5], "texture": "#20"},
				"down": {"uv": [3.5, 5.5, 3, 6], "texture": "#20"}
			}
		},
		{
			"name": "octagon",
			"from": [6.65897, 1.41201, 0.72476],
			"to": [7.16099, 1.61549, 1.74226],
			"rotation": {"angle": -22.5, "axis": "y", "origin": [6.76562, 1.51375, 1.29331]},
			"faces": {
				"north": {"uv": [3.5, 5.5, 4, 6], "texture": "#20"},
				"east": {"uv": [4, 5.5, 4.5, 6], "texture": "#20"},
				"south": {"uv": [4.5, 5.5, 5, 6], "texture": "#20"},
				"west": {"uv": [5, 5.5, 5.5, 6], "texture": "#20"},
				"up": {"uv": [6, 6, 5.5, 5.5], "texture": "#20"},
				"down": {"uv": [6, 0, 5.5, 0.5], "texture": "#20"}
			}
		},
		{
			"name": "octagon",
			"from": [6.85836, 1.00576, 1.78456],
			"to": [7.36039, 1.20924, 2.55206],
			"rotation": {"angle": 0, "axis": "y", "origin": [8, 9.29798, 6.67734]},
			"faces": {
				"north": {"uv": [5.5, 0.5, 6, 1], "texture": "#20"},
				"east": {"uv": [5.5, 1, 6, 1.5], "texture": "#20"},
				"south": {"uv": [5.5, 1.5, 6, 2], "texture": "#20"},
				"west": {"uv": [5.5, 2, 6, 2.5], "texture": "#20"},
				"up": {"uv": [6, 3, 5.5, 2.5], "texture": "#20"},
				"down": {"uv": [6, 3, 5.5, 3.5], "texture": "#20"}
			}
		},
		{
			"name": "octagon",
			"from": [8.67086, 1.81826, 1.78456],
			"to": [9.17289, 2.02174, 2.55206],
			"rotation": {"angle": 0, "axis": "y", "origin": [8, 9.29798, 6.67734]},
			"faces": {
				"north": {"uv": [5.5, 3.5, 6, 4], "texture": "#20"},
				"east": {"uv": [5.5, 4, 6, 4.5], "texture": "#20"},
				"south": {"uv": [5.5, 4.5, 6, 5], "texture": "#20"},
				"west": {"uv": [5.5, 5, 6, 5.5], "texture": "#20"},
				"up": {"uv": [0.5, 6.5, 0, 6], "texture": "#20"},
				"down": {"uv": [1, 6, 0.5, 6.5], "texture": "#20"}
			}
		},
		{
			"name": "octagon",
			"from": [8.67086, 1.41201, 2.00331],
			"to": [9.17289, 1.61549, 3.02081],
			"rotation": {"angle": 0, "axis": "y", "origin": [8, 9.29798, 6.67734]},
			"faces": {
				"north": {"uv": [1, 6, 1.5, 6.5], "texture": "#20"},
				"east": {"uv": [1.5, 6, 2, 6.5], "texture": "#20"},
				"south": {"uv": [2, 6, 2.5, 6.5], "texture": "#20"},
				"west": {"uv": [2.5, 6, 3, 6.5], "texture": "#20"},
				"up": {"uv": [3.5, 6.5, 3, 6], "texture": "#20"},
				"down": {"uv": [4, 6, 3.5, 6.5], "texture": "#20"}
			}
		},
		{
			"name": "octagon",
			"from": [8.84139, 1.63076, 1.45006],
			"to": [9.34341, 1.83424, 2.46756],
			"rotation": {"angle": -22.5, "axis": "y", "origin": [9.26562, 1.51375, 1.88706]},
			"faces": {
				"north": {"uv": [4, 6, 4.5, 6.5], "texture": "#20"},
				"east": {"uv": [4.5, 6, 5, 6.5], "texture": "#20"},
				"south": {"uv": [5, 6, 5.5, 6.5], "texture": "#20"},
				"west": {"uv": [5.5, 6, 6, 6.5], "texture": "#20"},
				"up": {"uv": [6.5, 6.5, 6, 6], "texture": "#20"},
				"down": {"uv": [6.5, 0, 6, 0.5], "texture": "#20"}
			}
		},
		{
			"name": "octagon",
			"from": [8.84139, 1.19326, 1.45006],
			"to": [9.34341, 1.39674, 2.46756],
			"rotation": {"angle": -22.5, "axis": "y", "origin": [9.26562, 1.51375, 1.88706]},
			"faces": {
				"north": {"uv": [6, 0.5, 6.5, 1], "texture": "#20"},
				"east": {"uv": [6, 1, 6.5, 1.5], "texture": "#20"},
				"south": {"uv": [6, 1.5, 6.5, 2], "texture": "#20"},
				"west": {"uv": [6, 2, 6.5, 2.5], "texture": "#20"},
				"up": {"uv": [6.5, 3, 6, 2.5], "texture": "#20"},
				"down": {"uv": [6.5, 3, 6, 3.5], "texture": "#20"}
			}
		},
		{
			"name": "octagon",
			"from": [8.84139, 1.41201, 0.7128],
			"to": [9.34341, 1.61549, 1.7303],
			"rotation": {"angle": 22.5, "axis": "y", "origin": [9.26562, 1.51375, 1.29331]},
			"faces": {
				"north": {"uv": [6, 3.5, 6.5, 4], "texture": "#20"},
				"east": {"uv": [6, 4, 6.5, 4.5], "texture": "#20"},
				"south": {"uv": [6, 4.5, 6.5, 5], "texture": "#20"},
				"west": {"uv": [6, 5, 6.5, 5.5], "texture": "#20"},
				"up": {"uv": [6.5, 6, 6, 5.5], "texture": "#20"},
				"down": {"uv": [0.5, 6.5, 0, 7], "texture": "#20"}
			}
		},
		{
			"name": "octagon",
			"from": [8.67086, 1.00576, 1.78456],
			"to": [9.17289, 1.20924, 2.55206],
			"rotation": {"angle": 0, "axis": "y", "origin": [8, 9.29798, 6.67734]},
			"faces": {
				"north": {"uv": [0.5, 6.5, 1, 7], "texture": "#20"},
				"east": {"uv": [1, 6.5, 1.5, 7], "texture": "#20"},
				"south": {"uv": [1.5, 6.5, 2, 7], "texture": "#20"},
				"west": {"uv": [2, 6.5, 2.5, 7], "texture": "#20"},
				"up": {"uv": [3, 7, 2.5, 6.5], "texture": "#20"},
				"down": {"uv": [3.5, 6.5, 3, 7], "texture": "#20"}
			}
		},
		{
			"name": "octagon",
			"from": [1.54728, 3.00092, 1.04756],
			"to": [2.40774, 5.07827, 1.56619],
			"rotation": {"angle": 45, "axis": "z", "origin": [8, 10.06209, 7.66536]},
			"faces": {
				"north": {"uv": [0.5, 2.5, 1, 3.5], "texture": "#20"},
				"east": {"uv": [1, 3, 1.5, 4], "texture": "#20"},
				"south": {"uv": [1.5, 3, 2, 4], "texture": "#20"},
				"west": {"uv": [2, 3, 2.5, 4], "texture": "#20"},
				"up": {"uv": [4, 7, 3.5, 6.5], "texture": "#20"},
				"down": {"uv": [4.5, 6.5, 4, 7], "texture": "#20"}
			}
		},
		{
			"name": "octagon",
			"from": [7.56977, 0.50632, 1.04756],
			"to": [8.43023, 2.58368, 1.56619],
			"rotation": {"angle": 0, "axis": "y", "origin": [8, 10.06209, 7.66536]},
			"faces": {
				"north": {"uv": [2.5, 3, 3, 4], "texture": "#20"},
				"east": {"uv": [3, 3, 3.5, 4], "texture": "#20"},
				"south": {"uv": [3, 0.5, 3.5, 1.5], "texture": "#20"},
				"west": {"uv": [3, 1.5, 3.5, 2.5], "texture": "#20"},
				"up": {"uv": [5, 7, 4.5, 6.5], "texture": "#20"},
				"down": {"uv": [5.5, 6.5, 5, 7], "texture": "#20"}
			}
		},
		{
			"name": "octagon",
			"from": [0.93883, 3.60936, 1.04756],
			"to": [3.01619, 4.46983, 1.56619],
			"rotation": {"angle": 45, "axis": "z", "origin": [8, 10.06209, 7.66536]},
			"faces": {
				"north": {"uv": [0, 3.5, 1, 4], "texture": "#20"},
				"east": {"uv": [5.5, 6.5, 6, 7], "texture": "#20"},
				"south": {"uv": [3.5, 3.5, 4.5, 4], "texture": "#20"},
				"west": {"uv": [6, 6.5, 6.5, 7], "texture": "#20"},
				"up": {"uv": [4.5, 0.5, 3.5, 0], "texture": "#20"},
				"down": {"uv": [4.5, 0.5, 3.5, 1], "texture": "#20"}
			}
		},
		{
			"name": "octagon",
			"from": [6.96132, 1.11477, 1.04756],
			"to": [9.03868, 1.97523, 1.56619],
			"rotation": {"angle": 0, "axis": "y", "origin": [8, 10.06209, 7.66536]},
			"faces": {
				"north": {"uv": [3.5, 1, 4.5, 1.5], "texture": "#20"},
				"east": {"uv": [6.5, 6.5, 7, 7], "texture": "#20"},
				"south": {"uv": [3.5, 1.5, 4.5, 2], "texture": "#20"},
				"west": {"uv": [6.5, 0, 7, 0.5], "texture": "#20"},
				"up": {"uv": [4.5, 2.5, 3.5, 2], "texture": "#20"},
				"down": {"uv": [4.5, 2.5, 3.5, 3], "texture": "#20"}
			}
		},
		{
			"name": "octagon",
			"from": [3.71183, 2.51254, 4.85571],
			"to": [4.28365, 3.89304, 5.16841],
			"rotation": {"angle": 45, "axis": "z", "origin": [8, 7.20505, 6.20364]},
			"faces": {
				"north": {"uv": [6.5, 0.5, 7, 1], "texture": "#20"},
				"east": {"uv": [6.5, 1, 7, 1.5], "texture": "#20"},
				"south": {"uv": [6.5, 1.5, 7, 2], "texture": "#20"},
				"west": {"uv": [6.5, 2, 7, 2.5], "texture": "#20"},
				"up": {"uv": [7, 3, 6.5, 2.5], "texture": "#20"},
				"down": {"uv": [7, 3, 6.5, 3.5], "texture": "#20"}
			}
		},
		{
			"name": "octagon",
			"from": [7.71409, 0.85475, 4.85571],
			"to": [8.28591, 2.23525, 5.16841],
			"rotation": {"angle": 0, "axis": "y", "origin": [8, 7.20505, 6.20364]},
			"faces": {
				"north": {"uv": [6.5, 3.5, 7, 4], "texture": "#20"},
				"east": {"uv": [6.5, 4, 7, 4.5], "texture": "#20"},
				"south": {"uv": [6.5, 4.5, 7, 5], "texture": "#20"},
				"west": {"uv": [6.5, 5, 7, 5.5], "texture": "#20"},
				"up": {"uv": [7, 6, 6.5, 5.5], "texture": "#20"},
				"down": {"uv": [7, 6, 6.5, 6.5], "texture": "#20"}
			}
		},
		{
			"name": "octagon",
			"from": [3.30749, 2.91688, 4.85571],
			"to": [4.68799, 3.4887, 5.16841],
			"rotation": {"angle": 45, "axis": "z", "origin": [8, 7.20505, 6.20364]},
			"faces": {
				"north": {"uv": [0, 7, 0.5, 7.5], "texture": "#20"},
				"east": {"uv": [0.5, 7, 1, 7.5], "texture": "#20"},
				"south": {"uv": [1, 7, 1.5, 7.5], "texture": "#20"},
				"west": {"uv": [1.5, 7, 2, 7.5], "texture": "#20"},
				"up": {"uv": [2.5, 7.5, 2, 7], "texture": "#20"},
				"down": {"uv": [3, 7, 2.5, 7.5], "texture": "#20"}
			}
		},
		{
			"name": "octagon",
			"from": [7.30975, 1.25909, 4.85571],
			"to": [8.69025, 1.83091, 5.16841],
			"rotation": {"angle": 0, "axis": "y", "origin": [8, 7.20505, 6.20364]},
			"faces": {
				"north": {"uv": [3, 7, 3.5, 7.5], "texture": "#20"},
				"east": {"uv": [3.5, 7, 4, 7.5], "texture": "#20"},
				"south": {"uv": [4, 7, 4.5, 7.5], "texture": "#20"},
				"west": {"uv": [4.5, 7, 5, 7.5], "texture": "#20"},
				"up": {"uv": [5.5, 7.5, 5, 7], "texture": "#20"},
				"down": {"uv": [6, 7, 5.5, 7.5], "texture": "#20"}
			}
		},
		{
			"name": "octagon",
			"from": [3.71183, 2.51254, 5.29321],
			"to": [4.28365, 3.89304, 5.60591],
			"rotation": {"angle": 45, "axis": "z", "origin": [8, 7.20505, 6.20364]},
			"faces": {
				"north": {"uv": [6, 7, 6.5, 7.5], "texture": "#20"},
				"east": {"uv": [6.5, 7, 7, 7.5], "texture": "#20"},
				"south": {"uv": [7, 7, 7.5, 7.5], "texture": "#20"},
				"west": {"uv": [7, 0, 7.5, 0.5], "texture": "#20"},
				"up": {"uv": [7.5, 1, 7, 0.5], "texture": "#20"},
				"down": {"uv": [7.5, 1, 7, 1.5], "texture": "#20"}
			}
		},
		{
			"name": "octagon",
			"from": [7.71409, 0.85475, 5.29321],
			"to": [8.28591, 2.23525, 5.60591],
			"rotation": {"angle": 0, "axis": "y", "origin": [8, 7.20505, 6.20364]},
			"faces": {
				"north": {"uv": [7, 1.5, 7.5, 2], "texture": "#20"},
				"east": {"uv": [7, 2, 7.5, 2.5], "texture": "#20"},
				"south": {"uv": [7, 2.5, 7.5, 3], "texture": "#20"},
				"west": {"uv": [7, 3, 7.5, 3.5], "texture": "#20"},
				"up": {"uv": [7.5, 4, 7, 3.5], "texture": "#20"},
				"down": {"uv": [7.5, 4, 7, 4.5], "texture": "#20"}
			}
		},
		{
			"name": "octagon",
			"from": [3.30749, 2.91688, 5.29321],
			"to": [4.68799, 3.4887, 5.60591],
			"rotation": {"angle": 45, "axis": "z", "origin": [8, 7.20505, 6.20364]},
			"faces": {
				"north": {"uv": [7, 4.5, 7.5, 5], "texture": "#20"},
				"east": {"uv": [7, 5, 7.5, 5.5], "texture": "#20"},
				"south": {"uv": [7, 5.5, 7.5, 6], "texture": "#20"},
				"west": {"uv": [7, 6, 7.5, 6.5], "texture": "#20"},
				"up": {"uv": [7.5, 7, 7, 6.5], "texture": "#20"},
				"down": {"uv": [0.5, 7.5, 0, 8], "texture": "#20"}
			}
		},
		{
			"name": "octagon",
			"from": [7.30975, 1.25909, 5.29321],
			"to": [8.69025, 1.83091, 5.60591],
			"rotation": {"angle": 0, "axis": "y", "origin": [8, 7.20505, 6.20364]},
			"faces": {
				"north": {"uv": [0.5, 7.5, 1, 8], "texture": "#20"},
				"east": {"uv": [1, 7.5, 1.5, 8], "texture": "#20"},
				"south": {"uv": [1.5, 7.5, 2, 8], "texture": "#20"},
				"west": {"uv": [2, 7.5, 2.5, 8], "texture": "#20"},
				"up": {"uv": [3, 8, 2.5, 7.5], "texture": "#20"},
				"down": {"uv": [3.5, 7.5, 3, 8], "texture": "#20"}
			}
		},
		{
			"name": "octagon",
			"from": [4.74099, 2.28033, 5.73448],
			"to": [5.17558, 3.32951, 6.75838],
			"rotation": {"angle": 45, "axis": "z", "origin": [8, 5.84664, 6.08266]},
			"faces": {
				"north": {"uv": [3.5, 7.5, 4, 8], "texture": "#20"},
				"east": {"uv": [4, 7.5, 4.5, 8], "texture": "#20"},
				"south": {"uv": [4.5, 7.5, 5, 8], "texture": "#20"},
				"west": {"uv": [5, 7.5, 5.5, 8], "texture": "#20"},
				"up": {"uv": [6, 8, 5.5, 7.5], "texture": "#20"},
				"down": {"uv": [6.5, 7.5, 6, 8], "texture": "#20"}
			}
		},
		{
			"name": "octagon",
			"from": [7.78271, 1.02041, 5.73448],
			"to": [8.21729, 2.06959, 6.75838],
			"rotation": {"angle": 0, "axis": "y", "origin": [8, 5.84664, 6.08266]},
			"faces": {
				"north": {"uv": [6.5, 7.5, 7, 8], "texture": "#20"},
				"east": {"uv": [7, 7.5, 7.5, 8], "texture": "#20"},
				"south": {"uv": [7.5, 7.5, 8, 8], "texture": "#20"},
				"west": {"uv": [7.5, 0, 8, 0.5], "texture": "#20"},
				"up": {"uv": [8, 1, 7.5, 0.5], "texture": "#20"},
				"down": {"uv": [8, 1, 7.5, 1.5], "texture": "#20"}
			}
		},
		{
			"name": "octagon",
			"from": [4.43369, 2.58763, 5.73448],
			"to": [5.48288, 3.02221, 6.75838],
			"rotation": {"angle": 45, "axis": "z", "origin": [8, 5.84664, 6.08266]},
			"faces": {
				"north": {"uv": [7.5, 1.5, 8, 2], "texture": "#20"},
				"east": {"uv": [7.5, 2, 8, 2.5], "texture": "#20"},
				"south": {"uv": [7.5, 2.5, 8, 3], "texture": "#20"},
				"west": {"uv": [7.5, 3, 8, 3.5], "texture": "#20"},
				"up": {"uv": [8, 4, 7.5, 3.5], "texture": "#20"},
				"down": {"uv": [8, 4, 7.5, 4.5], "texture": "#20"}
			}
		},
		{
			"name": "octagon",
			"from": [7.47541, 1.32771, 5.73448],
			"to": [8.52459, 1.76229, 6.75838],
			"rotation": {"angle": 0, "axis": "y", "origin": [8, 5.84664, 6.08266]},
			"faces": {
				"north": {"uv": [7.5, 4.5, 8, 5], "texture": "#20"},
				"east": {"uv": [7.5, 5, 8, 5.5], "texture": "#20"},
				"south": {"uv": [7.5, 5.5, 8, 6], "texture": "#20"},
				"west": {"uv": [7.5, 6, 8, 6.5], "texture": "#20"},
				"up": {"uv": [8, 7, 7.5, 6.5], "texture": "#20"},
				"down": {"uv": [8, 7, 7.5, 7.5], "texture": "#20"}
			}
		},
		{
			"name": "octagon",
			"from": [4.28473, 2.38327, 5.16281],
			"to": [4.78016, 3.57935, 5.76756],
			"rotation": {"angle": 45, "axis": "z", "origin": [8, 6.44887, 6.05973]},
			"faces": {
				"north": {"uv": [0, 8, 0.5, 8.5], "texture": "#20"},
				"east": {"uv": [0.5, 8, 1, 8.5], "texture": "#20"},
				"south": {"uv": [1, 8, 1.5, 8.5], "texture": "#20"},
				"west": {"uv": [1.5, 8, 2, 8.5], "texture": "#20"},
				"up": {"uv": [2.5, 8.5, 2, 8], "texture": "#20"},
				"down": {"uv": [3, 8, 2.5, 8.5], "texture": "#20"}
			}
		},
		{
			"name": "octagon",
			"from": [7.75229, 0.94696, 5.16281],
			"to": [8.24771, 2.14304, 5.76756],
			"rotation": {"angle": 0, "axis": "y", "origin": [8, 6.44887, 6.05973]},
			"faces": {
				"north": {"uv": [3, 8, 3.5, 8.5], "texture": "#20"},
				"east": {"uv": [3.5, 8, 4, 8.5], "texture": "#20"},
				"south": {"uv": [4, 8, 4.5, 8.5], "texture": "#20"},
				"west": {"uv": [4.5, 8, 5, 8.5], "texture": "#20"},
				"up": {"uv": [5.5, 8.5, 5, 8], "texture": "#20"},
				"down": {"uv": [6, 8, 5.5, 8.5], "texture": "#20"}
			}
		},
		{
			"name": "octagon",
			"from": [3.93441, 2.73359, 5.16281],
			"to": [5.13048, 3.22902, 5.76756],
			"rotation": {"angle": 45, "axis": "z", "origin": [8, 6.44887, 6.05973]},
			"faces": {
				"north": {"uv": [6, 8, 6.5, 8.5], "texture": "#20"},
				"east": {"uv": [6.5, 8, 7, 8.5], "texture": "#20"},
				"south": {"uv": [7, 8, 7.5, 8.5], "texture": "#20"},
				"west": {"uv": [7.5, 8, 8, 8.5], "texture": "#20"},
				"up": {"uv": [8.5, 8.5, 8, 8], "texture": "#20"},
				"down": {"uv": [8.5, 0, 8, 0.5], "texture": "#20"}
			}
		},
		{
			"name": "octagon",
			"from": [7.40196, 1.29729, 5.16281],
			"to": [8.59804, 1.79271, 5.76756],
			"rotation": {"angle": 0, "axis": "y", "origin": [8, 6.44887, 6.05973]},
			"faces": {
				"north": {"uv": [8, 0.5, 8.5, 1], "texture": "#20"},
				"east": {"uv": [8, 1, 8.5, 1.5], "texture": "#20"},
				"south": {"uv": [8, 1.5, 8.5, 2], "texture": "#20"},
				"west": {"uv": [8, 2, 8.5, 2.5], "texture": "#20"},
				"up": {"uv": [8.5, 3, 8, 2.5], "texture": "#20"},
				"down": {"uv": [8.5, 3, 8, 3.5], "texture": "#20"}
			}
		},
		{
			"name": "octagon",
			"from": [4.28473, 2.38327, 6.75656],
			"to": [4.78016, 3.57935, 7.08006],
			"rotation": {"angle": 45, "axis": "z", "origin": [8, 6.44887, 6.05973]},
			"faces": {
				"north": {"uv": [8, 3.5, 8.5, 4], "texture": "#20"},
				"east": {"uv": [8, 4, 8.5, 4.5], "texture": "#20"},
				"south": {"uv": [8, 4.5, 8.5, 5], "texture": "#20"},
				"west": {"uv": [8, 5, 8.5, 5.5], "texture": "#20"},
				"up": {"uv": [8.5, 6, 8, 5.5], "texture": "#20"},
				"down": {"uv": [8.5, 6, 8, 6.5], "texture": "#20"}
			}
		},
		{
			"name": "octagon",
			"from": [7.75229, 0.94696, 6.75656],
			"to": [8.24771, 2.14304, 7.08006],
			"rotation": {"angle": 0, "axis": "y", "origin": [8, 6.44887, 6.05973]},
			"faces": {
				"north": {"uv": [8, 6.5, 8.5, 7], "texture": "#20"},
				"east": {"uv": [8, 7, 8.5, 7.5], "texture": "#20"},
				"south": {"uv": [8, 7.5, 8.5, 8], "texture": "#20"},
				"west": {"uv": [0, 8.5, 0.5, 9], "texture": "#20"},
				"up": {"uv": [1, 9, 0.5, 8.5], "texture": "#20"},
				"down": {"uv": [1.5, 8.5, 1, 9], "texture": "#20"}
			}
		},
		{
			"name": "octagon",
			"from": [3.93441, 2.73359, 6.75656],
			"to": [5.13048, 3.22902, 7.08006],
			"rotation": {"angle": 45, "axis": "z", "origin": [8, 6.44887, 6.05973]},
			"faces": {
				"north": {"uv": [1.5, 8.5, 2, 9], "texture": "#20"},
				"east": {"uv": [2, 8.5, 2.5, 9], "texture": "#20"},
				"south": {"uv": [2.5, 8.5, 3, 9], "texture": "#20"},
				"west": {"uv": [3, 8.5, 3.5, 9], "texture": "#20"},
				"up": {"uv": [4, 9, 3.5, 8.5], "texture": "#20"},
				"down": {"uv": [4.5, 8.5, 4, 9], "texture": "#20"}
			}
		},
		{
			"name": "octagon",
			"from": [7.40196, 1.29729, 6.75656],
			"to": [8.59804, 1.79271, 7.08006],
			"rotation": {"angle": 0, "axis": "y", "origin": [8, 6.44887, 6.05973]},
			"faces": {
				"north": {"uv": [4.5, 8.5, 5, 9], "texture": "#20"},
				"east": {"uv": [5, 8.5, 5.5, 9], "texture": "#20"},
				"south": {"uv": [5.5, 8.5, 6, 9], "texture": "#20"},
				"west": {"uv": [6, 8.5, 6.5, 9], "texture": "#20"},
				"up": {"uv": [7, 9, 6.5, 8.5], "texture": "#20"},
				"down": {"uv": [7.5, 8.5, 7, 9], "texture": "#20"}
			}
		},
		{
			"name": "octagon",
			"from": [4.29949, 2.37994, 5.74061],
			"to": [4.4492, 3.57126, 6.75226],
			"rotation": {"angle": 45, "axis": "z", "origin": [8, 6.42938, 6.49775]},
			"faces": {
				"north": {"uv": [7.5, 8.5, 8, 9], "texture": "#20"},
				"east": {"uv": [8, 8.5, 8.5, 9], "texture": "#20"},
				"south": {"uv": [8.5, 8.5, 9, 9], "texture": "#20"},
				"west": {"uv": [8.5, 0, 9, 0.5], "texture": "#20"},
				"up": {"uv": [9, 1, 8.5, 0.5], "texture": "#20"},
				"down": {"uv": [9, 1, 8.5, 1.5], "texture": "#20"}
			}
		},
		{
			"name": "octagon",
			"from": [4.64324, 2.37994, 5.74061],
			"to": [4.79295, 3.57126, 6.75226],
			"rotation": {"angle": 45, "axis": "z", "origin": [8, 6.42938, 6.49775]},
			"faces": {
				"north": {"uv": [8.5, 1.5, 9, 2], "texture": "#20"},
				"east": {"uv": [8.5, 2, 9, 2.5], "texture": "#20"},
				"south": {"uv": [8.5, 2.5, 9, 3], "texture": "#20"},
				"west": {"uv": [8.5, 3, 9, 3.5], "texture": "#20"},
				"up": {"uv": [9, 4, 8.5, 3.5], "texture": "#20"},
				"down": {"uv": [9, 4, 8.5, 4.5], "texture": "#20"}
			}
		},
		{
			"name": "octagon",
			"from": [7.75327, 0.94934, 5.74061],
			"to": [7.90298, 2.14066, 6.75226],
			"rotation": {"angle": 0, "axis": "y", "origin": [8, 6.42938, 6.49775]},
			"faces": {
				"north": {"uv": [8.5, 4.5, 9, 5], "texture": "#20"},
				"east": {"uv": [8.5, 5, 9, 5.5], "texture": "#20"},
				"south": {"uv": [8.5, 5.5, 9, 6], "texture": "#20"},
				"west": {"uv": [8.5, 6, 9, 6.5], "texture": "#20"},
				"up": {"uv": [9, 7, 8.5, 6.5], "texture": "#20"},
				"down": {"uv": [9, 7, 8.5, 7.5], "texture": "#20"}
			}
		},
		{
			"name": "octagon",
			"from": [8.06577, 0.94934, 5.74061],
			"to": [8.24673, 2.14066, 6.75226],
			"rotation": {"angle": 0, "axis": "y", "origin": [8, 6.42938, 6.49775]},
			"faces": {
				"north": {"uv": [8.5, 7.5, 9, 8], "texture": "#20"},
				"east": {"uv": [8.5, 8, 9, 8.5], "texture": "#20"},
				"south": {"uv": [0, 9, 0.5, 9.5], "texture": "#20"},
				"west": {"uv": [0.5, 9, 1, 9.5], "texture": "#20"},
				"up": {"uv": [1.5, 9.5, 1, 9], "texture": "#20"},
				"down": {"uv": [2, 9, 1.5, 9.5], "texture": "#20"}
			}
		},
		{
			"name": "octagon",
			"from": [3.95056, 2.72887, 5.74061],
			"to": [5.14188, 2.87858, 6.75226],
			"rotation": {"angle": 45, "axis": "z", "origin": [8, 6.42938, 6.49775]},
			"faces": {
				"north": {"uv": [2, 9, 2.5, 9.5], "texture": "#20"},
				"east": {"uv": [2.5, 9, 3, 9.5], "texture": "#20"},
				"south": {"uv": [3, 9, 3.5, 9.5], "texture": "#20"},
				"west": {"uv": [3.5, 9, 4, 9.5], "texture": "#20"},
				"up": {"uv": [4.5, 9.5, 4, 9], "texture": "#20"},
				"down": {"uv": [5, 9, 4.5, 9.5], "texture": "#20"}
			}
		},
		{
			"name": "octagon",
			"from": [3.95056, 3.10387, 5.74061],
			"to": [5.14188, 3.22233, 6.75226],
			"rotation": {"angle": 45, "axis": "z", "origin": [8, 6.42938, 6.49775]},
			"faces": {
				"north": {"uv": [5, 9, 5.5, 9.5], "texture": "#20"},
				"east": {"uv": [5.5, 9, 6, 9.5], "texture": "#20"},
				"south": {"uv": [6, 9, 6.5, 9.5], "texture": "#20"},
				"west": {"uv": [6.5, 9, 7, 9.5], "texture": "#20"},
				"up": {"uv": [7.5, 9.5, 7, 9], "texture": "#20"},
				"down": {"uv": [8, 9, 7.5, 9.5], "texture": "#20"}
			}
		},
		{
			"name": "octagon",
			"from": [7.40434, 1.29827, 5.74061],
			"to": [8.59566, 1.41673, 6.75226],
			"rotation": {"angle": 0, "axis": "y", "origin": [8, 6.42938, 6.49775]},
			"faces": {
				"north": {"uv": [8, 9, 8.5, 9.5], "texture": "#20"},
				"east": {"uv": [8.5, 9, 9, 9.5], "texture": "#20"},
				"south": {"uv": [9, 9, 9.5, 9.5], "texture": "#20"},
				"west": {"uv": [9, 0, 9.5, 0.5], "texture": "#20"},
				"up": {"uv": [9.5, 1, 9, 0.5], "texture": "#20"},
				"down": {"uv": [9.5, 1, 9, 1.5], "texture": "#20"}
			}
		},
		{
			"name": "octagon",
			"from": [7.40434, 1.67327, 5.74061],
			"to": [8.59566, 1.79173, 6.75226],
			"rotation": {"angle": 0, "axis": "y", "origin": [8, 6.42938, 6.49775]},
			"faces": {
				"north": {"uv": [9, 1.5, 9.5, 2], "texture": "#20"},
				"east": {"uv": [9, 2, 9.5, 2.5], "texture": "#20"},
				"south": {"uv": [9, 2.5, 9.5, 3], "texture": "#20"},
				"west": {"uv": [9, 3, 9.5, 3.5], "texture": "#20"},
				"up": {"uv": [9.5, 4, 9, 3.5], "texture": "#20"},
				"down": {"uv": [9.5, 4, 9, 4.5], "texture": "#20"}
			}
		},
		{
			"name": "octagon",
			"from": [7.61709, -0.67111, 10.21315],
			"to": [8.41416, 0.06056, 11.97955],
			"rotation": {"angle": 45, "axis": "x", "origin": [7.99406, 10.25625, 9.805]},
			"faces": {
				"north": {"uv": [9, 4.5, 9.5, 5], "texture": "#20"},
				"east": {"uv": [3.5, 3, 4.5, 3.5], "texture": "#20"},
				"south": {"uv": [9, 5, 9.5, 5.5], "texture": "#20"},
				"west": {"uv": [0, 4, 1, 4.5], "texture": "#20"},
				"up": {"uv": [1.5, 5, 1, 4], "texture": "#20"},
				"down": {"uv": [2, 4, 1.5, 5], "texture": "#20"}
			}
		},
		{
			"name": "octagon",
			"from": [7.61709, 1.50917, 2.3668],
			"to": [8.41416, 2.24083, 4.1332],
			"rotation": {"angle": 0, "axis": "y", "origin": [7.99406, 10.25625, 9.805]},
			"faces": {
				"north": {"uv": [9, 5.5, 9.5, 6], "texture": "#20"},
				"east": {"uv": [2, 4, 3, 4.5], "texture": "#20"},
				"south": {"uv": [9, 6, 9.5, 6.5], "texture": "#20"},
				"west": {"uv": [3, 4, 4, 4.5], "texture": "#20"},
				"up": {"uv": [4.5, 5, 4, 4], "texture": "#20"},
				"down": {"uv": [0.5, 4.5, 0, 5.5], "texture": "#20"}
			}
		},
		{
			"name": "octagon",
			"from": [7.61709, -1.18847, 10.73052],
			"to": [8.41416, 0.57793, 11.46219],
			"rotation": {"angle": 45, "axis": "x", "origin": [7.99406, 10.25625, 9.805]},
			"faces": {
				"north": {"uv": [0.5, 4.5, 1, 5.5], "texture": "#20"},
				"east": {"uv": [2, 4.5, 2.5, 5.5], "texture": "#20"},
				"south": {"uv": [2.5, 4.5, 3, 5.5], "texture": "#20"},
				"west": {"uv": [3, 4.5, 3.5, 5.5], "texture": "#20"},
				"up": {"uv": [9.5, 7, 9, 6.5], "texture": "#20"},
				"down": {"uv": [9.5, 7, 9, 7.5], "texture": "#20"}
			}
		},
		{
			"name": "octagon",
			"from": [7.61709, 0.9918, 2.88417],
			"to": [8.41416, 2.7582, 3.61583],
			"rotation": {"angle": 0, "axis": "y", "origin": [7.99406, 10.25625, 9.805]},
			"faces": {
				"north": {"uv": [3.5, 4.5, 4, 5.5], "texture": "#20"},
				"east": {"uv": [4.5, 4.5, 5, 5.5], "texture": "#20"},
				"south": {"uv": [4.5, 0, 5, 1], "texture": "#20"},
				"west": {"uv": [4.5, 1, 5, 2], "texture": "#20"},
				"up": {"uv": [9.5, 8, 9, 7.5], "texture": "#20"},
				"down": {"uv": [9.5, 8, 9, 8.5], "texture": "#20"}
			}
		}
	],
	"display": {
		"thirdperson_righthand": {
			"rotation": [90, 0, 0],
			"translation": [0, 0, 3],
			"scale": [0.5, 0.5, 0.5]
		},
		"thirdperson_lefthand": {
			"rotation": [90, 0, 0],
			"translation": [0, 0, 3],
			"scale": [0.5, 0.5, 0.5]
		},
		"firstperson_righthand": {
			"rotation": [90, 0, 30]
		},
		"firstperson_lefthand": {
			"rotation": [90, 0, 30]
		},
		"fixed": {
			"rotation": [90, 45, 0],
			"translation": [1.25, -1.75, 6]
		},
		"ground": {
			"translation": [0, 4, 0]
		},
		"gui": {
			"rotation": [90, 0, 30],
			"translation": [-3, -4, 0]
		}
	}
}