{
  "type": "normal",
  "text": "Vertical Displacement Error. A timeship's landing settings may drift up or down in flight. Use the Vertical Land Type control to realign the timeship's destination position."
}